%YAML 1.1
%TAG !u! tag:unity3d.com,2011:
--- !u!1 &2130624026701434250
GameObject:
  m_ObjectHideFlags: 0
  m_CorrespondingSourceObject: {fileID: 0}
  m_PrefabInstance: {fileID: 0}
  m_PrefabAsset: {fileID: 0}
  serializedVersion: 6
  m_Component:
  - component: {fileID: 4568576259961285794}
  - component: {fileID: 2790937157374423054}
  m_Layer: 0
  m_Name: DemoPalette
  m_TagString: Untagged
  m_Icon: {fileID: 0}
  m_NavMeshLayer: 0
  m_StaticEditorFlags: 0
  m_IsActive: 1
--- !u!4 &4568576259961285794
Transform:
  m_ObjectHideFlags: 0
  m_CorrespondingSourceObject: {fileID: 0}
  m_PrefabInstance: {fileID: 0}
  m_PrefabAsset: {fileID: 0}
  m_GameObject: {fileID: 2130624026701434250}
  serializedVersion: 2
  m_LocalRotation: {x: 0, y: 0, z: 0, w: 1}
  m_LocalPosition: {x: 0, y: 0, z: 0}
  m_LocalScale: {x: 1, y: 1, z: 1}
  m_ConstrainProportionsScale: 0
  m_Children:
  - {fileID: 5205976258454790938}
  m_Father: {fileID: 0}
  m_LocalEulerAnglesHint: {x: 0, y: 0, z: 0}
--- !u!156049354 &2790937157374423054
Grid:
  m_ObjectHideFlags: 0
  m_CorrespondingSourceObject: {fileID: 0}
  m_PrefabInstance: {fileID: 0}
  m_PrefabAsset: {fileID: 0}
  m_GameObject: {fileID: 2130624026701434250}
  m_Enabled: 1
  m_CellSize: {x: 1, y: 1, z: 0}
  m_CellGap: {x: 0, y: 0, z: 0}
  m_CellLayout: 0
  m_CellSwizzle: 0
--- !u!1 &3957980112704358642
GameObject:
  m_ObjectHideFlags: 0
  m_CorrespondingSourceObject: {fileID: 0}
  m_PrefabInstance: {fileID: 0}
  m_PrefabAsset: {fileID: 0}
  serializedVersion: 6
  m_Component:
  - component: {fileID: 5205976258454790938}
  - component: {fileID: 4641200999790870815}
  - component: {fileID: 2993288964353122860}
  m_Layer: 0
  m_Name: Layer1
  m_TagString: Untagged
  m_Icon: {fileID: 0}
  m_NavMeshLayer: 0
  m_StaticEditorFlags: 0
  m_IsActive: 1
--- !u!4 &5205976258454790938
Transform:
  m_ObjectHideFlags: 0
  m_CorrespondingSourceObject: {fileID: 0}
  m_PrefabInstance: {fileID: 0}
  m_PrefabAsset: {fileID: 0}
  m_GameObject: {fileID: 3957980112704358642}
  serializedVersion: 2
  m_LocalRotation: {x: -0, y: -0, z: -0, w: 1}
  m_LocalPosition: {x: 0, y: 0, z: 0}
  m_LocalScale: {x: 1, y: 1, z: 1}
  m_ConstrainProportionsScale: 0
  m_Children: []
  m_Father: {fileID: 4568576259961285794}
  m_LocalEulerAnglesHint: {x: 0, y: 0, z: 0}
--- !u!1839735485 &4641200999790870815
Tilemap:
  m_ObjectHideFlags: 0
  m_CorrespondingSourceObject: {fileID: 0}
  m_PrefabInstance: {fileID: 0}
  m_PrefabAsset: {fileID: 0}
  m_GameObject: {fileID: 3957980112704358642}
  m_Enabled: 1
  m_Tiles:
  - first: {x: -4, y: 10, z: 0}
    second:
      serializedVersion: 2
      m_TileIndex: 30
      m_TileSpriteIndex: 30
      m_TileMatrixIndex: 0
      m_TileColorIndex: 0
      m_TileObjectToInstantiateIndex: 65535
      dummyAlignment: 0
      m_AllTileFlags: 1073741825
  - first: {x: -3, y: 10, z: 0}
    second:
      serializedVersion: 2
      m_TileIndex: 31
      m_TileSpriteIndex: 31
      m_TileMatrixIndex: 0
      m_TileColorIndex: 0
      m_TileObjectToInstantiateIndex: 65535
      dummyAlignment: 0
      m_AllTileFlags: 1073741825
  - first: {x: -2, y: 10, z: 0}
    second:
      serializedVersion: 2
      m_TileIndex: 32
      m_TileSpriteIndex: 32
      m_TileMatrixIndex: 0
      m_TileColorIndex: 0
      m_TileObjectToInstantiateIndex: 65535
      dummyAlignment: 0
      m_AllTileFlags: 1073741825
  - first: {x: -1, y: 10, z: 0}
    second:
      serializedVersion: 2
      m_TileIndex: 33
      m_TileSpriteIndex: 33
      m_TileMatrixIndex: 0
      m_TileColorIndex: 0
      m_TileObjectToInstantiateIndex: 65535
      dummyAlignment: 0
      m_AllTileFlags: 1073741825
  - first: {x: 1, y: 10, z: 0}
    second:
      serializedVersion: 2
      m_TileIndex: 34
      m_TileSpriteIndex: 34
      m_TileMatrixIndex: 0
      m_TileColorIndex: 0
      m_TileObjectToInstantiateIndex: 65535
      dummyAlignment: 0
      m_AllTileFlags: 1073741825
  - first: {x: 2, y: 10, z: 0}
    second:
      serializedVersion: 2
      m_TileIndex: 35
      m_TileSpriteIndex: 35
      m_TileMatrixIndex: 0
      m_TileColorIndex: 0
      m_TileObjectToInstantiateIndex: 65535
      dummyAlignment: 0
      m_AllTileFlags: 1073741825
  - first: {x: 3, y: 10, z: 0}
    second:
      serializedVersion: 2
      m_TileIndex: 36
      m_TileSpriteIndex: 36
      m_TileMatrixIndex: 0
      m_TileColorIndex: 0
      m_TileObjectToInstantiateIndex: 65535
      dummyAlignment: 0
      m_AllTileFlags: 1073741825
  - first: {x: 4, y: 10, z: 0}
    second:
      serializedVersion: 2
      m_TileIndex: 37
      m_TileSpriteIndex: 37
      m_TileMatrixIndex: 0
      m_TileColorIndex: 0
      m_TileObjectToInstantiateIndex: 65535
      dummyAlignment: 0
      m_AllTileFlags: 1073741825
  - first: {x: 6, y: 10, z: 0}
    second:
      serializedVersion: 2
      m_TileIndex: 38
      m_TileSpriteIndex: 38
      m_TileMatrixIndex: 0
      m_TileColorIndex: 0
      m_TileObjectToInstantiateIndex: 65535
      dummyAlignment: 0
      m_AllTileFlags: 1073741825
  - first: {x: 7, y: 10, z: 0}
    second:
      serializedVersion: 2
      m_TileIndex: 39
      m_TileSpriteIndex: 39
      m_TileMatrixIndex: 0
      m_TileColorIndex: 0
      m_TileObjectToInstantiateIndex: 65535
      dummyAlignment: 0
      m_AllTileFlags: 1073741825
  - first: {x: 8, y: 10, z: 0}
    second:
      serializedVersion: 2
      m_TileIndex: 40
      m_TileSpriteIndex: 40
      m_TileMatrixIndex: 0
      m_TileColorIndex: 0
      m_TileObjectToInstantiateIndex: 65535
      dummyAlignment: 0
      m_AllTileFlags: 1073741825
  - first: {x: 9, y: 10, z: 0}
    second:
      serializedVersion: 2
      m_TileIndex: 41
      m_TileSpriteIndex: 41
      m_TileMatrixIndex: 0
      m_TileColorIndex: 0
      m_TileObjectToInstantiateIndex: 65535
      dummyAlignment: 0
      m_AllTileFlags: 1073741825
  - first: {x: 11, y: 10, z: 0}
    second:
      serializedVersion: 2
      m_TileIndex: 42
      m_TileSpriteIndex: 42
      m_TileMatrixIndex: 0
      m_TileColorIndex: 0
      m_TileObjectToInstantiateIndex: 65535
      dummyAlignment: 0
      m_AllTileFlags: 1073741825
  - first: {x: 12, y: 10, z: 0}
    second:
      serializedVersion: 2
      m_TileIndex: 43
      m_TileSpriteIndex: 43
      m_TileMatrixIndex: 0
      m_TileColorIndex: 0
      m_TileObjectToInstantiateIndex: 65535
      dummyAlignment: 0
      m_AllTileFlags: 1073741825
  - first: {x: 13, y: 10, z: 0}
    second:
      serializedVersion: 2
      m_TileIndex: 44
      m_TileSpriteIndex: 44
      m_TileMatrixIndex: 0
      m_TileColorIndex: 0
      m_TileObjectToInstantiateIndex: 65535
      dummyAlignment: 0
      m_AllTileFlags: 1073741825
  - first: {x: -4, y: 12, z: 0}
    second:
      serializedVersion: 2
      m_TileIndex: 16
      m_TileSpriteIndex: 16
      m_TileMatrixIndex: 0
      m_TileColorIndex: 0
      m_TileObjectToInstantiateIndex: 65535
      dummyAlignment: 0
      m_AllTileFlags: 1073741825
  - first: {x: -3, y: 12, z: 0}
    second:
      serializedVersion: 2
      m_TileIndex: 17
      m_TileSpriteIndex: 17
      m_TileMatrixIndex: 0
      m_TileColorIndex: 0
      m_TileObjectToInstantiateIndex: 65535
      dummyAlignment: 0
      m_AllTileFlags: 1073741825
  - first: {x: -2, y: 12, z: 0}
    second:
      serializedVersion: 2
      m_TileIndex: 18
      m_TileSpriteIndex: 18
      m_TileMatrixIndex: 0
      m_TileColorIndex: 0
      m_TileObjectToInstantiateIndex: 65535
      dummyAlignment: 0
      m_AllTileFlags: 1073741825
  - first: {x: -1, y: 12, z: 0}
    second:
      serializedVersion: 2
      m_TileIndex: 19
      m_TileSpriteIndex: 19
      m_TileMatrixIndex: 0
      m_TileColorIndex: 0
      m_TileObjectToInstantiateIndex: 65535
      dummyAlignment: 0
      m_AllTileFlags: 1073741825
  - first: {x: 1, y: 12, z: 0}
    second:
      serializedVersion: 2
      m_TileIndex: 20
      m_TileSpriteIndex: 20
      m_TileMatrixIndex: 0
      m_TileColorIndex: 0
      m_TileObjectToInstantiateIndex: 65535
      dummyAlignment: 0
      m_AllTileFlags: 1073741825
  - first: {x: 2, y: 12, z: 0}
    second:
      serializedVersion: 2
      m_TileIndex: 21
      m_TileSpriteIndex: 21
      m_TileMatrixIndex: 0
      m_TileColorIndex: 0
      m_TileObjectToInstantiateIndex: 65535
      dummyAlignment: 0
      m_AllTileFlags: 1073741825
  - first: {x: 3, y: 12, z: 0}
    second:
      serializedVersion: 2
      m_TileIndex: 22
      m_TileSpriteIndex: 22
      m_TileMatrixIndex: 0
      m_TileColorIndex: 0
      m_TileObjectToInstantiateIndex: 65535
      dummyAlignment: 0
      m_AllTileFlags: 1073741825
  - first: {x: 4, y: 12, z: 0}
    second:
      serializedVersion: 2
      m_TileIndex: 23
      m_TileSpriteIndex: 23
      m_TileMatrixIndex: 0
      m_TileColorIndex: 0
      m_TileObjectToInstantiateIndex: 65535
      dummyAlignment: 0
      m_AllTileFlags: 1073741825
  - first: {x: 6, y: 12, z: 0}
    second:
      serializedVersion: 2
      m_TileIndex: 24
      m_TileSpriteIndex: 24
      m_TileMatrixIndex: 0
      m_TileColorIndex: 0
      m_TileObjectToInstantiateIndex: 65535
      dummyAlignment: 0
      m_AllTileFlags: 1073741825
  - first: {x: 7, y: 12, z: 0}
    second:
      serializedVersion: 2
      m_TileIndex: 25
      m_TileSpriteIndex: 25
      m_TileMatrixIndex: 0
      m_TileColorIndex: 0
      m_TileObjectToInstantiateIndex: 65535
      dummyAlignment: 0
      m_AllTileFlags: 1073741825
  - first: {x: 8, y: 12, z: 0}
    second:
      serializedVersion: 2
      m_TileIndex: 26
      m_TileSpriteIndex: 26
      m_TileMatrixIndex: 0
      m_TileColorIndex: 0
      m_TileObjectToInstantiateIndex: 65535
      dummyAlignment: 0
      m_AllTileFlags: 1073741825
  - first: {x: 9, y: 12, z: 0}
    second:
      serializedVersion: 2
      m_TileIndex: 27
      m_TileSpriteIndex: 27
      m_TileMatrixIndex: 0
      m_TileColorIndex: 0
      m_TileObjectToInstantiateIndex: 65535
      dummyAlignment: 0
      m_AllTileFlags: 1073741825
  - first: {x: 11, y: 12, z: 0}
    second:
      serializedVersion: 2
      m_TileIndex: 28
      m_TileSpriteIndex: 28
      m_TileMatrixIndex: 0
      m_TileColorIndex: 0
      m_TileObjectToInstantiateIndex: 65535
      dummyAlignment: 0
      m_AllTileFlags: 1073741825
  - first: {x: 12, y: 12, z: 0}
    second:
      serializedVersion: 2
      m_TileIndex: 29
      m_TileSpriteIndex: 29
      m_TileMatrixIndex: 0
      m_TileColorIndex: 0
      m_TileObjectToInstantiateIndex: 65535
      dummyAlignment: 0
      m_AllTileFlags: 1073741825
  - first: {x: -4, y: 14, z: 0}
    second:
      serializedVersion: 2
      m_TileIndex: 0
      m_TileSpriteIndex: 0
      m_TileMatrixIndex: 0
      m_TileColorIndex: 0
      m_TileObjectToInstantiateIndex: 65535
      dummyAlignment: 0
      m_AllTileFlags: 1073741825
  - first: {x: -3, y: 14, z: 0}
    second:
      serializedVersion: 2
      m_TileIndex: 1
      m_TileSpriteIndex: 1
      m_TileMatrixIndex: 0
      m_TileColorIndex: 0
      m_TileObjectToInstantiateIndex: 65535
      dummyAlignment: 0
      m_AllTileFlags: 1073741825
  - first: {x: -2, y: 14, z: 0}
    second:
      serializedVersion: 2
      m_TileIndex: 2
      m_TileSpriteIndex: 2
      m_TileMatrixIndex: 0
      m_TileColorIndex: 0
      m_TileObjectToInstantiateIndex: 65535
      dummyAlignment: 0
      m_AllTileFlags: 1073741825
  - first: {x: -1, y: 14, z: 0}
    second:
      serializedVersion: 2
      m_TileIndex: 3
      m_TileSpriteIndex: 3
      m_TileMatrixIndex: 0
      m_TileColorIndex: 0
      m_TileObjectToInstantiateIndex: 65535
      dummyAlignment: 0
      m_AllTileFlags: 1073741825
  - first: {x: 1, y: 14, z: 0}
    second:
      serializedVersion: 2
      m_TileIndex: 4
      m_TileSpriteIndex: 4
      m_TileMatrixIndex: 0
      m_TileColorIndex: 0
      m_TileObjectToInstantiateIndex: 65535
      dummyAlignment: 0
      m_AllTileFlags: 1073741825
  - first: {x: 2, y: 14, z: 0}
    second:
      serializedVersion: 2
      m_TileIndex: 5
      m_TileSpriteIndex: 5
      m_TileMatrixIndex: 0
      m_TileColorIndex: 0
      m_TileObjectToInstantiateIndex: 65535
      dummyAlignment: 0
      m_AllTileFlags: 1073741825
  - first: {x: 3, y: 14, z: 0}
    second:
      serializedVersion: 2
      m_TileIndex: 6
      m_TileSpriteIndex: 6
      m_TileMatrixIndex: 0
      m_TileColorIndex: 0
      m_TileObjectToInstantiateIndex: 65535
      dummyAlignment: 0
      m_AllTileFlags: 1073741825
  - first: {x: 4, y: 14, z: 0}
    second:
      serializedVersion: 2
      m_TileIndex: 7
      m_TileSpriteIndex: 7
      m_TileMatrixIndex: 0
      m_TileColorIndex: 0
      m_TileObjectToInstantiateIndex: 65535
      dummyAlignment: 0
      m_AllTileFlags: 1073741825
  - first: {x: 6, y: 14, z: 0}
    second:
      serializedVersion: 2
      m_TileIndex: 8
      m_TileSpriteIndex: 8
      m_TileMatrixIndex: 0
      m_TileColorIndex: 0
      m_TileObjectToInstantiateIndex: 65535
      dummyAlignment: 0
      m_AllTileFlags: 1073741825
  - first: {x: 7, y: 14, z: 0}
    second:
      serializedVersion: 2
      m_TileIndex: 9
      m_TileSpriteIndex: 9
      m_TileMatrixIndex: 0
      m_TileColorIndex: 0
      m_TileObjectToInstantiateIndex: 65535
      dummyAlignment: 0
      m_AllTileFlags: 1073741825
  - first: {x: 8, y: 14, z: 0}
    second:
      serializedVersion: 2
      m_TileIndex: 10
      m_TileSpriteIndex: 10
      m_TileMatrixIndex: 0
      m_TileColorIndex: 0
      m_TileObjectToInstantiateIndex: 65535
      dummyAlignment: 0
      m_AllTileFlags: 1073741825
  - first: {x: 9, y: 14, z: 0}
    second:
      serializedVersion: 2
      m_TileIndex: 11
      m_TileSpriteIndex: 11
      m_TileMatrixIndex: 0
      m_TileColorIndex: 0
      m_TileObjectToInstantiateIndex: 65535
      dummyAlignment: 0
      m_AllTileFlags: 1073741825
  - first: {x: 11, y: 14, z: 0}
    second:
      serializedVersion: 2
      m_TileIndex: 12
      m_TileSpriteIndex: 12
      m_TileMatrixIndex: 0
      m_TileColorIndex: 0
      m_TileObjectToInstantiateIndex: 65535
      dummyAlignment: 0
      m_AllTileFlags: 1073741825
  - first: {x: 12, y: 14, z: 0}
    second:
      serializedVersion: 2
      m_TileIndex: 13
      m_TileSpriteIndex: 13
      m_TileMatrixIndex: 0
      m_TileColorIndex: 0
      m_TileObjectToInstantiateIndex: 65535
      dummyAlignment: 0
      m_AllTileFlags: 1073741825
  - first: {x: 13, y: 14, z: 0}
    second:
      serializedVersion: 2
      m_TileIndex: 14
      m_TileSpriteIndex: 14
      m_TileMatrixIndex: 0
      m_TileColorIndex: 0
      m_TileObjectToInstantiateIndex: 65535
      dummyAlignment: 0
      m_AllTileFlags: 1073741825
  - first: {x: 14, y: 14, z: 0}
    second:
      serializedVersion: 2
      m_TileIndex: 15
      m_TileSpriteIndex: 15
      m_TileMatrixIndex: 0
      m_TileColorIndex: 0
      m_TileObjectToInstantiateIndex: 65535
      dummyAlignment: 0
      m_AllTileFlags: 1073741825
  m_AnimatedTiles: {}
  m_TileAssetArray:
  - m_RefCount: 1
    m_Data: {fileID: 11400000, guid: 1ba55d43964d75b4aa941d22d4910aa8, type: 2}
  - m_RefCount: 1
    m_Data: {fileID: 11400000, guid: 9040f08cada031b46a52aaa3345677ca, type: 2}
  - m_RefCount: 1
    m_Data: {fileID: 11400000, guid: 9717dc29ab8dc1846a7e8ddacb514dc3, type: 2}
  - m_RefCount: 1
    m_Data: {fileID: 11400000, guid: 5bd36ddeb32d1a440b28697753c591c0, type: 2}
  - m_RefCount: 1
    m_Data: {fileID: 11400000, guid: 758189587fd40ae4da2c2003feb4a225, type: 2}
  - m_RefCount: 1
    m_Data: {fileID: 11400000, guid: 27818201966c45e47b73dc6f0f12bb6e, type: 2}
  - m_RefCount: 1
    m_Data: {fileID: 11400000, guid: 66a7672d54e112347b23ab25ffdeded3, type: 2}
  - m_RefCount: 1
    m_Data: {fileID: 11400000, guid: f942f04ea724ee64ab954fc8c57ed3cb, type: 2}
  - m_RefCount: 1
    m_Data: {fileID: 11400000, guid: 36cde87d7afd49c498b1bfec2d3058e6, type: 2}
  - m_RefCount: 1
    m_Data: {fileID: 11400000, guid: a3bbd88344916f540b6c089b963ff01c, type: 2}
  - m_RefCount: 1
    m_Data: {fileID: 11400000, guid: c99265071fdbe744aa9e783fa2a181c5, type: 2}
  - m_RefCount: 1
    m_Data: {fileID: 11400000, guid: 9dca521d70d18fe4792e891c81106588, type: 2}
  - m_RefCount: 1
    m_Data: {fileID: 11400000, guid: 1cb44b95282826d4b86dc26b6d5dbcce, type: 2}
  - m_RefCount: 1
    m_Data: {fileID: 11400000, guid: 023af54b03f91ca499d158e97f86148a, type: 2}
  - m_RefCount: 1
    m_Data: {fileID: 11400000, guid: 7538b1bbff7007b40858ebac9abcdaeb, type: 2}
  - m_RefCount: 1
    m_Data: {fileID: 11400000, guid: d07294a860e19674289c0427dbcdcd2f, type: 2}
  - m_RefCount: 1
    m_Data: {fileID: 11400000, guid: be91cfb5ed7da1b4e88f46b4c1916e6f, type: 2}
  - m_RefCount: 1
    m_Data: {fileID: 11400000, guid: 4b1b576c361ded44e85d6b4ee80682bd, type: 2}
  - m_RefCount: 1
    m_Data: {fileID: 11400000, guid: 22c7da631ec874c419e5fc6548635286, type: 2}
  - m_RefCount: 1
    m_Data: {fileID: 11400000, guid: c153b38cc07d4df479275ad247772669, type: 2}
  - m_RefCount: 1
    m_Data: {fileID: 11400000, guid: 20d27aa91812cbb4a8d4add07092dcac, type: 2}
  - m_RefCount: 1
    m_Data: {fileID: 11400000, guid: 075c33b9dbd336b4bb8f62705323bad3, type: 2}
  - m_RefCount: 1
    m_Data: {fileID: 11400000, guid: c23ea4fcdea645948848f0b7e02f1fc9, type: 2}
  - m_RefCount: 1
    m_Data: {fileID: 11400000, guid: 5f26ec91f405fdf4182462ebfaf19b5e, type: 2}
  - m_RefCount: 1
    m_Data: {fileID: 11400000, guid: c6f2691641f920f458f2addd92f1d0a0, type: 2}
  - m_RefCount: 1
    m_Data: {fileID: 11400000, guid: 5d2ccd7feafca3d42a3bc620de495d45, type: 2}
  - m_RefCount: 1
    m_Data: {fileID: 11400000, guid: 44b4cf51dfc35724081061ade58de2b2, type: 2}
  - m_RefCount: 1
    m_Data: {fileID: 11400000, guid: ae94d66afc9dbf94ca766a0638d1589e, type: 2}
  - m_RefCount: 1
    m_Data: {fileID: 11400000, guid: e747c4a39db0e02428a51f4279f70d5e, type: 2}
  - m_RefCount: 1
    m_Data: {fileID: 11400000, guid: 3c249372fd41ea74cb2d1ac57c72c91c, type: 2}
  - m_RefCount: 1
    m_Data: {fileID: 11400000, guid: a0b8eafdffbfcb542ba133b480c5076a, type: 2}
  - m_RefCount: 1
    m_Data: {fileID: 11400000, guid: fed67d7be4b1aed4c98b60fe4fc32294, type: 2}
  - m_RefCount: 1
    m_Data: {fileID: 11400000, guid: dc8d2469b2224b641aa39da2959fb40f, type: 2}
  - m_RefCount: 1
    m_Data: {fileID: 11400000, guid: 1f8c2ab117f87d0439ba5fab7537166f, type: 2}
  - m_RefCount: 1
    m_Data: {fileID: 11400000, guid: 7dc5d2d98ea1649469161946dd211faf, type: 2}
  - m_RefCount: 1
    m_Data: {fileID: 11400000, guid: fb132ab044dea5f4baed12b1d509ff69, type: 2}
  - m_RefCount: 1
    m_Data: {fileID: 11400000, guid: 12e53758ba5111543904e88cb6bc7665, type: 2}
  - m_RefCount: 1
    m_Data: {fileID: 11400000, guid: 15418f18bea06114c84040f59964875d, type: 2}
  - m_RefCount: 1
    m_Data: {fileID: 11400000, guid: 28cccdffbc7e2b845b3861ae2085dd14, type: 2}
  - m_RefCount: 1
    m_Data: {fileID: 11400000, guid: 6ad5a9073d67de84ea3ccde57a049563, type: 2}
  - m_RefCount: 1
    m_Data: {fileID: 11400000, guid: 0989b4539278fe54fbda693b084d0410, type: 2}
  - m_RefCount: 1
    m_Data: {fileID: 11400000, guid: fdf3984c6f40f2c4285621e2b3ff3e7b, type: 2}
  - m_RefCount: 1
    m_Data: {fileID: 11400000, guid: 5444248a5762a5140866ba66103b320e, type: 2}
  - m_RefCount: 1
    m_Data: {fileID: 11400000, guid: 2c7307891ab0cbb48b1cb85908b8c5a5, type: 2}
  - m_RefCount: 1
    m_Data: {fileID: 11400000, guid: 9077ea56321e74f47ae380d434e51f49, type: 2}
  m_TileSpriteArray:
  - m_RefCount: 1
    m_Data: {fileID: 1029844281, guid: 3a7704259ef88ff4894c2e2e46d3dd4f, type: 3}
  - m_RefCount: 1
    m_Data: {fileID: -1852739504, guid: 3a7704259ef88ff4894c2e2e46d3dd4f, type: 3}
  - m_RefCount: 1
    m_Data: {fileID: 1992881441, guid: 3a7704259ef88ff4894c2e2e46d3dd4f, type: 3}
  - m_RefCount: 1
    m_Data: {fileID: 1012179445, guid: 3a7704259ef88ff4894c2e2e46d3dd4f, type: 3}
  - m_RefCount: 1
    m_Data: {fileID: -1367678903, guid: 3a7704259ef88ff4894c2e2e46d3dd4f, type: 3}
  - m_RefCount: 1
    m_Data: {fileID: 398909124, guid: 3a7704259ef88ff4894c2e2e46d3dd4f, type: 3}
  - m_RefCount: 1
    m_Data: {fileID: 833213409, guid: 3a7704259ef88ff4894c2e2e46d3dd4f, type: 3}
  - m_RefCount: 1
    m_Data: {fileID: 853658920, guid: 3a7704259ef88ff4894c2e2e46d3dd4f, type: 3}
  - m_RefCount: 1
    m_Data: {fileID: 620006150, guid: 3a7704259ef88ff4894c2e2e46d3dd4f, type: 3}
  - m_RefCount: 1
    m_Data: {fileID: -71996032, guid: 3a7704259ef88ff4894c2e2e46d3dd4f, type: 3}
  - m_RefCount: 1
    m_Data: {fileID: 1683285749, guid: 3a7704259ef88ff4894c2e2e46d3dd4f, type: 3}
  - m_RefCount: 1
    m_Data: {fileID: -305196953, guid: 3a7704259ef88ff4894c2e2e46d3dd4f, type: 3}
  - m_RefCount: 1
    m_Data: {fileID: 2129272613, guid: 3a7704259ef88ff4894c2e2e46d3dd4f, type: 3}
  - m_RefCount: 1
    m_Data: {fileID: 299319687, guid: 3a7704259ef88ff4894c2e2e46d3dd4f, type: 3}
  - m_RefCount: 1
    m_Data: {fileID: -41166005, guid: 3a7704259ef88ff4894c2e2e46d3dd4f, type: 3}
  - m_RefCount: 1
    m_Data: {fileID: -926444842, guid: 3a7704259ef88ff4894c2e2e46d3dd4f, type: 3}
  - m_RefCount: 1
    m_Data: {fileID: -1729703165, guid: 3a7704259ef88ff4894c2e2e46d3dd4f, type: 3}
  - m_RefCount: 1
    m_Data: {fileID: 764110856, guid: 3a7704259ef88ff4894c2e2e46d3dd4f, type: 3}
  - m_RefCount: 1
    m_Data: {fileID: -904335536, guid: 3a7704259ef88ff4894c2e2e46d3dd4f, type: 3}
  - m_RefCount: 1
    m_Data: {fileID: 1867069467, guid: 3a7704259ef88ff4894c2e2e46d3dd4f, type: 3}
  - m_RefCount: 1
    m_Data: {fileID: 1440248, guid: 3a7704259ef88ff4894c2e2e46d3dd4f, type: 3}
  - m_RefCount: 1
    m_Data: {fileID: -1766358644, guid: 3a7704259ef88ff4894c2e2e46d3dd4f, type: 3}
  - m_RefCount: 1
    m_Data: {fileID: -485367897, guid: 3a7704259ef88ff4894c2e2e46d3dd4f, type: 3}
  - m_RefCount: 1
    m_Data: {fileID: 64584634, guid: 3a7704259ef88ff4894c2e2e46d3dd4f, type: 3}
  - m_RefCount: 1
    m_Data: {fileID: 2065529840, guid: 3a7704259ef88ff4894c2e2e46d3dd4f, type: 3}
  - m_RefCount: 1
    m_Data: {fileID: -1957631622, guid: 3a7704259ef88ff4894c2e2e46d3dd4f, type: 3}
  - m_RefCount: 1
    m_Data: {fileID: 2007531532, guid: 3a7704259ef88ff4894c2e2e46d3dd4f, type: 3}
  - m_RefCount: 1
    m_Data: {fileID: 1288587307, guid: 3a7704259ef88ff4894c2e2e46d3dd4f, type: 3}
  - m_RefCount: 1
    m_Data: {fileID: 28511353, guid: 3a7704259ef88ff4894c2e2e46d3dd4f, type: 3}
  - m_RefCount: 1
    m_Data: {fileID: -216002979, guid: 3a7704259ef88ff4894c2e2e46d3dd4f, type: 3}
  - m_RefCount: 1
    m_Data: {fileID: -1067913942, guid: 3a7704259ef88ff4894c2e2e46d3dd4f, type: 3}
  - m_RefCount: 1
    m_Data: {fileID: 2020182304, guid: 3a7704259ef88ff4894c2e2e46d3dd4f, type: 3}
  - m_RefCount: 1
    m_Data: {fileID: 1929697626, guid: 3a7704259ef88ff4894c2e2e46d3dd4f, type: 3}
  - m_RefCount: 1
    m_Data: {fileID: -1761742512, guid: 3a7704259ef88ff4894c2e2e46d3dd4f, type: 3}
  - m_RefCount: 1
    m_Data: {fileID: -1948530367, guid: 3a7704259ef88ff4894c2e2e46d3dd4f, type: 3}
  - m_RefCount: 1
    m_Data: {fileID: 1042781730, guid: 3a7704259ef88ff4894c2e2e46d3dd4f, type: 3}
  - m_RefCount: 1
    m_Data: {fileID: -1341598811, guid: 3a7704259ef88ff4894c2e2e46d3dd4f, type: 3}
  - m_RefCount: 1
    m_Data: {fileID: -355477780, guid: 3a7704259ef88ff4894c2e2e46d3dd4f, type: 3}
  - m_RefCount: 1
    m_Data: {fileID: 1456074038, guid: 3a7704259ef88ff4894c2e2e46d3dd4f, type: 3}
  - m_RefCount: 1
    m_Data: {fileID: -2089779137, guid: 3a7704259ef88ff4894c2e2e46d3dd4f, type: 3}
  - m_RefCount: 1
    m_Data: {fileID: 1743560482, guid: 3a7704259ef88ff4894c2e2e46d3dd4f, type: 3}
  - m_RefCount: 1
    m_Data: {fileID: 41024976, guid: 3a7704259ef88ff4894c2e2e46d3dd4f, type: 3}
  - m_RefCount: 1
    m_Data: {fileID: 1175621161, guid: 3a7704259ef88ff4894c2e2e46d3dd4f, type: 3}
  - m_RefCount: 1
    m_Data: {fileID: -2086779015, guid: 3a7704259ef88ff4894c2e2e46d3dd4f, type: 3}
  - m_RefCount: 1
    m_Data: {fileID: -132433816, guid: 3a7704259ef88ff4894c2e2e46d3dd4f, type: 3}
  m_TileMatrixArray:
  - m_RefCount: 45
    m_Data:
      e00: 1
      e01: 0
      e02: 0
      e03: 0
      e10: 0
      e11: 1
      e12: 0
      e13: 0
      e20: 0
      e21: 0
      e22: 1
      e23: 0
      e30: 0
      e31: 0
      e32: 0
      e33: 1
  m_TileColorArray:
  - m_RefCount: 45
    m_Data: {r: 1, g: 1, b: 1, a: 1}
  m_TileObjectToInstantiateArray: []
  m_AnimationFrameRate: 1
  m_Color: {r: 1, g: 1, b: 1, a: 1}
  m_Origin: {x: -4, y: 0, z: 0}
  m_Size: {x: 19, y: 15, z: 1}
  m_TileAnchor: {x: 0.5, y: 0.5, z: 0}
  m_TileOrientation: 0
  m_TileOrientationMatrix:
    e00: 1
    e01: 0
    e02: 0
    e03: 0
    e10: 0
    e11: 1
    e12: 0
    e13: 0
    e20: 0
    e21: 0
    e22: 1
    e23: 0
    e30: 0
    e31: 0
    e32: 0
    e33: 1
--- !u!483693784 &2993288964353122860
TilemapRenderer:
  m_ObjectHideFlags: 0
  m_CorrespondingSourceObject: {fileID: 0}
  m_PrefabInstance: {fileID: 0}
  m_PrefabAsset: {fileID: 0}
  m_GameObject: {fileID: 3957980112704358642}
  m_Enabled: 1
  m_CastShadows: 0
  m_ReceiveShadows: 0
  m_DynamicOccludee: 0
  m_StaticShadowCaster: 0
  m_MotionVectors: 1
  m_LightProbeUsage: 0
  m_ReflectionProbeUsage: 0
  m_RayTracingMode: 0
  m_RayTraceProcedural: 0
  m_RenderingLayerMask: 1
  m_RendererPriority: 0
  m_Materials:
  - {fileID: 10754, guid: 0000000000000000f000000000000000, type: 0}
  m_StaticBatchInfo:
    firstSubMesh: 0
    subMeshCount: 0
  m_StaticBatchRoot: {fileID: 0}
  m_ProbeAnchor: {fileID: 0}
  m_LightProbeVolumeOverride: {fileID: 0}
  m_ScaleInLightmap: 1
  m_ReceiveGI: 1
  m_PreserveUVs: 0
  m_IgnoreNormalsForChartDetection: 0
  m_ImportantGI: 0
  m_StitchLightmapSeams: 1
  m_SelectedEditorRenderState: 0
  m_MinimumChartSize: 4
  m_AutoUVMaxDistance: 0.5
  m_AutoUVMaxAngle: 89
  m_LightmapParameters: {fileID: 0}
  m_SortingLayerID: 0
  m_SortingLayer: 0
  m_SortingOrder: 0
  m_ChunkSize: {x: 32, y: 32, z: 32}
  m_ChunkCullingBounds: {x: 0, y: 0, z: 0}
  m_MaxChunkCount: 16
  m_MaxFrameAge: 16
  m_SortOrder: 0
  m_Mode: 0
  m_DetectChunkCullingBounds: 0
  m_MaskInteraction: 0
--- !u!114 &1934233246812682006
MonoBehaviour:
  m_ObjectHideFlags: 0
  m_CorrespondingSourceObject: {fileID: 0}
  m_PrefabInstance: {fileID: 0}
  m_PrefabAsset: {fileID: 0}
  m_GameObject: {fileID: 0}
  m_Enabled: 1
  m_EditorHideFlags: 0
  m_Script: {fileID: 12395, guid: 0000000000000000e000000000000000, type: 0}
  m_Name: Palette Settings
  m_EditorClassIdentifier: 
  cellSizing: 100
  m_TransparencySortMode: 0
  m_TransparencySortAxis: {x: 0, y: 0, z: 1}
